<?xml version="1.0" encoding="utf-8"?>
<!-- Generator: Adobe Illustrator 15.0.0, SVG Export Plug-In . SVG Version: 6.00 Build 0)  -->
<!DOCTYPE svg PUBLIC "-//W3C//DTD SVG 1.1//EN" "http://www.w3.org/Graphics/SVG/1.1/DTD/svg11.dtd">
<svg version="1.1" id="Capa_1" xmlns="http://www.w3.org/2000/svg" xmlns:xlink="http://www.w3.org/1999/xlink" x="0px" y="0px"
	 width="238px" height="86px" viewBox="0 0 238 86" enable-background="new 0 0 238 86" xml:space="preserve">
<g>
	<g>
		<g>
			<path fill="#FFFFFF" d="M51.658,62.404h-4.741V33.595c0-3.972,1.892-5.957,5.678-5.957h3.558c3.783,0,5.676,1.985,5.676,5.957
				v28.809h-4.74V49.67h-5.432V62.404z M57.09,45.457V33.884c0-1.355-0.69-2.034-2.072-2.034h-1.286
				c-1.382,0-2.073,0.679-2.073,2.034v11.573H57.09z"/>
			<path fill="#FFFFFF" d="M73.336,49.67v-4.213h7.209v16.947h-9.284c-3.653,0-5.48-1.951-5.48-5.857V33.595
				c0-3.972,1.827-5.957,5.48-5.957h3.26c4.016,0,6.024,2.018,6.024,6.053v3.777h-4.739V34.37c0-1.679-0.677-2.52-2.025-2.52h-1.186
				c-1.382,0-2.074,0.841-2.074,2.52v21.306c0,1.678,0.691,2.518,2.074,2.518h3.211V49.67H73.336z"/>
			<path fill="#FFFFFF" d="M84.398,27.638h9.283c3.622,0,5.432,1.985,5.432,5.957v8.57c0,3.034-0.939,4.956-2.816,5.76l3.309,14.479
				h-4.493l-3.111-14.041h-2.865v14.041h-4.739V27.638z M89.138,44.393h3.112c1.414,0,2.123-0.839,2.123-2.518V34.37
				c0-1.679-0.708-2.52-2.123-2.52h-3.112V44.393z"/>
			<path fill="#FFFFFF" d="M108.546,62.404c-3.821,0-5.73-1.967-5.73-5.906V33.595c0-3.972,1.894-5.957,5.679-5.957h4.544
				c3.786,0,5.679,1.985,5.679,5.957v22.903c0,3.939-1.91,5.906-5.731,5.906H108.546z M109.681,58.193h2.42
				c1.251,0,1.879-0.678,1.879-2.035V33.884c0-1.355-0.709-2.034-2.127-2.034h-2.222c-1.383,0-2.073,0.679-2.073,2.034v22.274
				C107.558,57.516,108.266,58.193,109.681,58.193z"/>
			<path fill="#FFFFFF" d="M137.085,54.271v2.227c0,3.939-1.893,5.906-5.678,5.906h-3.063c-3.783,0-5.677-1.967-5.677-5.906V33.545
				c0-3.938,1.894-5.907,5.677-5.907h3.063c3.785,0,5.678,1.969,5.678,5.907v3.923h-4.738v-3.584c0-1.355-0.708-2.034-2.123-2.034
				h-0.938c-1.252,0-1.877,0.679-1.877,2.034v22.274c0,1.357,0.625,2.035,1.877,2.035h1.185c1.248,0,1.876-0.678,1.876-2.035v-1.887
				H137.085z"/>
			<path fill="#FFFFFF" d="M140.792,62.404V27.638h11.752v4.212h-7.014v10.557h6.225v4.214h-6.225v11.572h7.014v4.211H140.792z"/>
			<path fill="#FFFFFF" d="M155.95,27.638h9.283c3.623,0,5.434,1.985,5.434,5.957v8.57c0,3.034-0.939,4.956-2.817,5.76l3.31,14.479
				h-4.494l-3.108-14.041h-2.865v14.041h-4.741V27.638z M160.691,44.393h3.11c1.416,0,2.123-0.839,2.123-2.518V34.37
				c0-1.679-0.707-2.52-2.123-2.52h-3.11V44.393z"/>
			<path fill="#FFFFFF" d="M188.788,54.271v2.227c0,3.939-1.895,5.906-5.679,5.906h-3.062c-3.787,0-5.678-1.967-5.678-5.906V33.545
				c0-3.938,1.891-5.907,5.678-5.907h3.062c3.784,0,5.679,1.969,5.679,5.907v3.923h-4.738v-3.584c0-1.355-0.709-2.034-2.125-2.034
				h-0.938c-1.251,0-1.878,0.679-1.878,2.034v22.274c0,1.357,0.627,2.035,1.878,2.035h1.184c1.25,0,1.879-0.678,1.879-2.035v-1.887
				H188.788z"/>
			<path fill="#FFFFFF" d="M196.987,62.404h-4.741V33.595c0-3.972,1.892-5.957,5.678-5.957h3.556c3.786,0,5.68,1.985,5.68,5.957
				v28.809h-4.74V49.67h-5.432V62.404z M202.419,45.457V33.884c0-1.355-0.691-2.034-2.071-2.034h-1.287
				c-1.384,0-2.073,0.679-2.073,2.034v11.573H202.419z"/>
			<path fill="#FFFFFF" d="M220.442,36.985v-3.052c0-1.388-0.691-2.083-2.072-2.083h-0.743c-1.349,0-2.024,0.695-2.024,2.083v5.764
				c0,0.644,0.133,1.081,0.396,1.306c0.264,0.227,0.691,0.517,1.285,0.872l4.493,2.372c0.986,0.551,1.684,0.979,2.097,1.285
				c0.412,0.307,0.732,0.678,0.965,1.113c0.229,0.436,0.343,1.266,0.343,2.494v7.408c0,3.906-1.908,5.857-5.725,5.857h-2.915
				c-3.787,0-5.678-2.129-5.678-6.391v-1.742h4.738v1.887c0,1.357,0.706,2.035,2.123,2.035h0.842c1.25,0,1.875-0.678,1.875-2.035
				v-5.906c0-0.645-0.129-1.082-0.396-1.309c-0.263-0.225-0.691-0.516-1.283-0.871l-4.493-2.469
				c-0.988-0.518-1.702-0.953-2.147-1.309c-0.448-0.354-0.766-0.814-0.964-1.379c-0.197-0.564-0.295-1.3-0.295-2.203v-7.117
				c0-3.972,1.891-5.957,5.678-5.957h2.963c3.785,0,5.677,1.985,5.677,5.957v3.39H220.442z"/>
		</g>
		<path fill="#C65D1D" d="M60.434,24.673v-9.516c0-8.753-3.903-13.447-11.61-14.182v-0.15h-2.167h-7.428H23.048h-8.625
			c-9.187,0-13.778,4.816-13.778,14.45v69.898h11.501V54.277l13.306-0.041v16.605c0,8.645,3.796,13.338,11.314,14.162l0.059,0.004
			c0.775,0.082,1.549,0.166,2.403,0.166h7.428c9.183,0,13.777-4.775,13.777-14.332v-5.404H48.933v4.582
			c0,3.289-1.518,4.934-4.553,4.934h-2.876c-3.036,0-4.551-1.645-4.551-4.934V15.98c0-3.29,1.515-4.934,4.551-4.934h2.278
			c3.432,0,5.151,1.644,5.151,4.934v8.693H60.434z M25.324,44.057H12.146V15.98c0-3.29,1.677-4.934,5.032-4.934h3.115
			c3.354,0,5.032,1.644,5.032,4.934V44.057z"/>
		<g>
			<path fill="#FFFFFF" d="M232.753,21.65c2.558-0.001,4.594,1.981,4.602,4.481c0.009,2.514-2.041,4.535-4.602,4.536
				c-2.555,0-4.586-2.003-4.586-4.521C228.165,23.646,230.2,21.65,232.753,21.65z M236.708,26.146
				c0.002-2.156-1.767-3.897-3.959-3.895c-2.184,0.002-3.941,1.73-3.945,3.884c-0.002,2.181,1.725,3.897,3.933,3.907
				C234.943,30.054,236.703,28.326,236.708,26.146z"/>
			<path fill="#FFFFFF" d="M233.71,26.299c0.685,0.202,1.006,0.659,1.035,1.333c0.004,0.098-0.002,0.195,0,0.294
				c0.009,0.222,0.023,0.442,0.037,0.681c-0.221,0-0.447,0.008-0.674-0.005c-0.048-0.003-0.122-0.071-0.127-0.116
				c-0.021-0.181-0.018-0.363-0.032-0.544c-0.013-0.173-0.021-0.349-0.058-0.519c-0.085-0.391-0.318-0.666-0.736-0.712
				c-0.441-0.05-0.89-0.06-1.361-0.088c0,0.683,0,1.321,0,1.972c-0.309,0-0.588,0-0.884,0c0-1.64,0-3.272,0-4.906
				c0.011-0.007,0.022-0.022,0.031-0.022c0.833,0.011,1.665,0.02,2.498,0.034c0.114,0.002,0.228,0.027,0.339,0.052
				c0.94,0.207,1.375,1.312,0.813,2.063C234.376,26.104,234.052,26.21,233.71,26.299z M231.804,26.045
				c0.258,0,0.493,0.011,0.727-0.002c0.256-0.013,0.514-0.022,0.761-0.075c0.438-0.092,0.655-0.39,0.655-0.828
				c0-0.479-0.175-0.734-0.653-0.807c-0.487-0.075-0.983-0.078-1.489-0.114C231.804,24.855,231.804,25.438,231.804,26.045z"/>
		</g>
	</g>
	<g>
		<path fill="#FFFFFF" d="M85.494,72.273v4.959h-1.007V65.256h3.617c1.066,0,1.895,0.32,2.482,0.963
			c0.587,0.641,0.88,1.486,0.88,2.541c0,1.064-0.293,1.916-0.88,2.555c-0.588,0.639-1.416,0.959-2.482,0.959H85.494z M85.494,71.408
			h2.61c0.782,0,1.37-0.25,1.761-0.754c0.392-0.5,0.588-1.127,0.588-1.877c0-0.764-0.196-1.395-0.588-1.896
			c-0.391-0.504-0.979-0.754-1.761-0.754h-2.61V71.408z"/>
		<path fill="#FFFFFF" d="M96.828,69.219l-0.664-0.047c-0.47,0-0.857,0.154-1.165,0.463c-0.308,0.311-0.536,0.738-0.679,1.279v6.318
			h-1.009v-8.9h0.89l0.119,1.473c0.212-0.516,0.493-0.918,0.842-1.205c0.35-0.289,0.76-0.432,1.229-0.432
			c0.105,0,0.214,0.008,0.319,0.029c0.105,0.018,0.191,0.037,0.252,0.061L96.828,69.219z"/>
		<path fill="#FFFFFF" d="M97.765,72.131c0-1.15,0.303-2.098,0.908-2.844c0.604-0.746,1.414-1.119,2.432-1.119
			s1.831,0.371,2.438,1.115c0.605,0.742,0.91,1.693,0.91,2.848v1.309c0,1.17-0.304,2.123-0.907,2.859
			c-0.604,0.738-1.416,1.107-2.433,1.107c-1.023,0-1.838-0.369-2.441-1.107c-0.604-0.736-0.908-1.689-0.908-2.859V72.131z
			 M98.781,73.449c0,0.891,0.202,1.635,0.604,2.227c0.402,0.594,0.979,0.891,1.729,0.891c0.731,0,1.302-0.299,1.71-0.895
			c0.408-0.596,0.613-1.338,0.613-2.223v-1.309c0-0.875-0.205-1.611-0.613-2.207c-0.409-0.596-0.982-0.895-1.72-0.895
			c-0.745,0-1.317,0.299-1.719,0.895s-0.604,1.332-0.604,2.207V73.449z"/>
		<path fill="#FFFFFF" d="M107.799,66.061v2.271h1.576v0.84h-1.576v5.768c0,0.576,0.083,0.982,0.252,1.225
			c0.169,0.24,0.39,0.361,0.664,0.361c0.134,0,0.265-0.008,0.392-0.025c0.131-0.016,0.275-0.039,0.438-0.074l0.134,0.758
			c-0.134,0.066-0.307,0.119-0.523,0.16c-0.218,0.041-0.433,0.063-0.651,0.063c-0.536,0-0.957-0.199-1.262-0.592
			c-0.307-0.396-0.458-1.02-0.458-1.875v-5.768h-1.258v-0.84h1.258v-2.271H107.799z"/>
		<path fill="#FFFFFF" d="M114.209,77.406c-0.979,0-1.777-0.359-2.399-1.082c-0.62-0.721-0.93-1.641-0.93-2.76v-1.482
			c0-1.123,0.31-2.057,0.935-2.799c0.622-0.744,1.375-1.115,2.252-1.115c0.951,0,1.689,0.332,2.214,0.994
			c0.525,0.666,0.789,1.557,0.789,2.678v0.975h-5.192v0.738c0,0.865,0.21,1.582,0.629,2.154c0.418,0.572,0.986,0.859,1.702,0.859
			c0.498,0,0.926-0.084,1.287-0.256c0.363-0.172,0.671-0.416,0.929-0.732l0.41,0.697c-0.274,0.344-0.627,0.617-1.06,0.824
			C115.342,77.303,114.82,77.406,114.209,77.406z M114.067,69.039c-0.632,0-1.151,0.283-1.557,0.848
			c-0.403,0.564-0.617,1.262-0.632,2.09h4.186v-0.379c0-0.734-0.175-1.346-0.528-1.83C115.183,69.283,114.695,69.039,114.067,69.039
			z"/>
		<path fill="#FFFFFF" d="M118.506,72.346c0-1.26,0.258-2.273,0.78-3.035s1.239-1.143,2.157-1.143c0.507,0,0.953,0.121,1.337,0.365
			c0.383,0.244,0.699,0.592,0.951,1.041l0.099-1.242h0.858v8.908c0,1.143-0.271,2.025-0.813,2.65
			c-0.543,0.625-1.311,0.938-2.309,0.938c-0.357,0-0.74-0.053-1.152-0.162c-0.411-0.105-0.776-0.246-1.096-0.422l0.279-0.863
			c0.272,0.17,0.578,0.303,0.913,0.398c0.336,0.096,0.684,0.143,1.04,0.143c0.722,0,1.254-0.227,1.603-0.682
			c0.345-0.455,0.521-1.121,0.521-2v-1.076c-0.258,0.398-0.574,0.707-0.95,0.92c-0.374,0.215-0.807,0.322-1.3,0.322
			c-0.912,0-1.627-0.35-2.143-1.049c-0.518-0.701-0.775-1.631-0.775-2.793V72.346z M119.521,73.564c0,0.898,0.175,1.617,0.527,2.154
			c0.353,0.537,0.884,0.807,1.596,0.807c0.486,0,0.897-0.131,1.233-0.391c0.335-0.262,0.601-0.621,0.798-1.082v-4.41
			c-0.189-0.471-0.451-0.854-0.777-1.146c-0.328-0.293-0.74-0.439-1.237-0.439c-0.71,0-1.245,0.303-1.603,0.912
			c-0.357,0.609-0.537,1.4-0.537,2.377V73.564z"/>
		<path fill="#FFFFFF" d="M129.892,77.406c-0.98,0-1.779-0.359-2.399-1.082c-0.621-0.721-0.933-1.641-0.933-2.76v-1.482
			c0-1.123,0.312-2.057,0.937-2.799c0.623-0.744,1.376-1.115,2.253-1.115c0.949,0,1.688,0.332,2.213,0.994
			c0.526,0.666,0.791,1.557,0.791,2.678v0.975h-5.195v0.738c0,0.865,0.211,1.582,0.629,2.154c0.42,0.572,0.988,0.859,1.705,0.859
			c0.494,0,0.926-0.084,1.283-0.256c0.363-0.172,0.67-0.416,0.93-0.732l0.41,0.697c-0.271,0.344-0.627,0.617-1.062,0.824
			C131.021,77.303,130.497,77.406,129.892,77.406z M129.749,69.039c-0.634,0-1.153,0.283-1.558,0.848
			c-0.409,0.564-0.616,1.262-0.634,2.09h4.186v-0.379c0-0.734-0.177-1.346-0.527-1.83C130.862,69.283,130.374,69.039,129.749,69.039
			z"/>
		<path fill="#FFFFFF" d="M142.517,75.111c0-0.406-0.139-0.758-0.406-1.053c-0.271-0.295-0.768-0.605-1.488-0.932
			c-0.924-0.371-1.598-0.752-2.027-1.137c-0.425-0.389-0.644-0.895-0.644-1.52c0-0.637,0.256-1.18,0.768-1.629
			c0.507-0.451,1.167-0.674,1.978-0.674c0.859,0,1.544,0.25,2.047,0.748c0.504,0.5,0.745,1.123,0.723,1.867l-0.02,0.049H142.5
			c0-0.482-0.163-0.9-0.487-1.258c-0.323-0.357-0.763-0.535-1.316-0.535c-0.564,0-0.996,0.141-1.291,0.42
			c-0.297,0.279-0.445,0.607-0.445,0.979c0,0.395,0.119,0.711,0.351,0.951c0.235,0.238,0.741,0.537,1.513,0.9
			c0.907,0.357,1.582,0.744,2.031,1.164c0.445,0.42,0.669,0.949,0.669,1.59c0,0.711-0.261,1.279-0.776,1.713s-1.2,0.65-2.051,0.65
			c-0.934,0-1.664-0.258-2.196-0.775c-0.524-0.518-0.776-1.131-0.749-1.842l0.017-0.049h0.94c0.033,0.639,0.242,1.104,0.629,1.393
			c0.385,0.289,0.838,0.434,1.359,0.434c0.564,0,1.01-0.141,1.334-0.422C142.358,75.863,142.517,75.52,142.517,75.111z"/>
		<path fill="#FFFFFF" d="M150.294,75.844c-0.239,0.498-0.559,0.883-0.957,1.156c-0.398,0.27-0.863,0.406-1.393,0.406
			c-0.805,0-1.434-0.318-1.884-0.951s-0.677-1.619-0.677-2.957v-5.166h1.009v5.182c0,1.082,0.145,1.852,0.429,2.316
			c0.291,0.463,0.71,0.695,1.257,0.695c0.577,0,1.046-0.152,1.405-0.457c0.361-0.305,0.619-0.723,0.775-1.254v-6.482h1.004v8.9h-0.9
			L150.294,75.844z"/>
		<path fill="#FFFFFF" d="M157.904,75.111c0-0.406-0.139-0.758-0.409-1.053c-0.271-0.295-0.767-0.605-1.488-0.932
			c-0.923-0.371-1.6-0.752-2.026-1.137c-0.427-0.389-0.644-0.895-0.644-1.52c0-0.637,0.256-1.18,0.766-1.629
			c0.51-0.451,1.167-0.674,1.979-0.674c0.861,0,1.543,0.25,2.046,0.748c0.505,0.5,0.749,1.123,0.724,1.867l-0.018,0.049h-0.945
			c0-0.482-0.165-0.9-0.489-1.258c-0.325-0.357-0.763-0.535-1.317-0.535c-0.566,0-0.997,0.141-1.292,0.42s-0.446,0.607-0.446,0.979
			c0,0.395,0.118,0.711,0.355,0.951c0.233,0.238,0.738,0.537,1.508,0.9c0.906,0.357,1.582,0.744,2.032,1.164
			c0.448,0.42,0.669,0.949,0.669,1.59c0,0.711-0.256,1.279-0.771,1.713c-0.521,0.434-1.205,0.65-2.055,0.65
			c-0.934,0-1.666-0.258-2.191-0.775c-0.53-0.518-0.781-1.131-0.753-1.842l0.017-0.049h0.938c0.037,0.639,0.245,1.104,0.63,1.393
			c0.387,0.289,0.841,0.434,1.359,0.434c0.564,0,1.01-0.141,1.334-0.422C157.741,75.863,157.904,75.52,157.904,75.111z"/>
		<path fill="#FFFFFF" d="M170.501,71.646h-4.821v5.586h-1.007V65.256h6.541v0.871h-5.534v4.648h4.821V71.646z"/>
		<path fill="#FFFFFF" d="M176.124,69.219l-0.664-0.047c-0.471,0-0.855,0.154-1.166,0.463c-0.307,0.311-0.533,0.738-0.676,1.279
			v6.318h-1.01v-8.9h0.888l0.122,1.473c0.208-0.516,0.492-0.918,0.842-1.205c0.346-0.289,0.759-0.432,1.229-0.432
			c0.104,0,0.211,0.008,0.316,0.029c0.107,0.018,0.193,0.037,0.254,0.061L176.124,69.219z"/>
		<path fill="#FFFFFF" d="M177.063,72.131c0-1.15,0.301-2.098,0.905-2.844c0.603-0.746,1.413-1.119,2.433-1.119
			c1.019,0,1.831,0.371,2.438,1.115c0.604,0.742,0.91,1.693,0.91,2.848v1.309c0,1.17-0.303,2.123-0.908,2.859
			c-0.602,0.738-1.412,1.107-2.43,1.107c-1.023,0-1.84-0.369-2.442-1.107c-0.604-0.736-0.905-1.689-0.905-2.859V72.131z
			 M178.075,73.449c0,0.891,0.203,1.635,0.607,2.227c0.4,0.594,0.978,0.891,1.729,0.891c0.732,0,1.302-0.299,1.712-0.895
			c0.407-0.596,0.608-1.338,0.608-2.223v-1.309c0-0.875-0.201-1.611-0.608-2.207c-0.41-0.596-0.983-0.895-1.722-0.895
			c-0.743,0-1.318,0.299-1.719,0.895c-0.404,0.596-0.607,1.332-0.607,2.207V73.449z"/>
		<path fill="#FFFFFF" d="M186.507,68.332l0.085,1.473c0.241-0.521,0.563-0.924,0.959-1.209c0.402-0.285,0.87-0.428,1.407-0.428
			c0.811,0,1.434,0.293,1.869,0.885c0.429,0.59,0.646,1.506,0.646,2.75v5.43h-1.013v-5.422c0-1.014-0.15-1.727-0.452-2.139
			c-0.301-0.41-0.74-0.615-1.318-0.615c-0.516,0-0.944,0.164-1.294,0.498c-0.344,0.33-0.604,0.773-0.777,1.326v6.352h-1.008v-8.9
			H186.507z"/>
		<path fill="#FFFFFF" d="M195.226,66.061v2.271h1.576v0.84h-1.576v5.768c0,0.576,0.084,0.982,0.252,1.225
			c0.166,0.24,0.389,0.361,0.662,0.361c0.134,0,0.266-0.008,0.394-0.025c0.13-0.016,0.272-0.039,0.435-0.074l0.137,0.758
			c-0.137,0.066-0.31,0.119-0.523,0.16c-0.217,0.041-0.434,0.063-0.65,0.063c-0.539,0-0.959-0.199-1.265-0.592
			c-0.306-0.396-0.458-1.02-0.458-1.875v-5.768h-1.256v-0.84h1.256v-2.271H195.226z"/>
		<path fill="#FFFFFF" d="M201.633,77.406c-0.976,0-1.776-0.359-2.399-1.082c-0.619-0.721-0.928-1.641-0.928-2.76v-1.482
			c0-1.123,0.309-2.057,0.932-2.799c0.625-0.744,1.379-1.115,2.256-1.115c0.948,0,1.689,0.332,2.213,0.994
			c0.526,0.666,0.79,1.557,0.79,2.678v0.975h-5.194v0.738c0,0.865,0.211,1.582,0.631,2.154c0.417,0.572,0.986,0.859,1.7,0.859
			c0.499,0,0.929-0.084,1.287-0.256c0.365-0.172,0.673-0.416,0.927-0.732l0.416,0.697c-0.275,0.344-0.629,0.617-1.064,0.824
			C202.765,77.303,202.243,77.406,201.633,77.406z M201.493,69.039c-0.634,0-1.154,0.283-1.559,0.848
			c-0.406,0.564-0.617,1.262-0.633,2.09h4.188v-0.379c0-0.734-0.178-1.346-0.527-1.83C202.606,69.283,202.118,69.039,201.493,69.039
			z"/>
		<path fill="#FFFFFF" d="M209.771,69.219l-0.66-0.047c-0.472,0-0.857,0.154-1.165,0.463c-0.308,0.311-0.536,0.738-0.681,1.279
			v6.318h-1.009v-8.9h0.892l0.117,1.473c0.213-0.516,0.495-0.918,0.844-1.205c0.349-0.289,0.76-0.432,1.228-0.432
			c0.104,0,0.212,0.008,0.319,0.029c0.105,0.018,0.188,0.037,0.252,0.061L209.771,69.219z"/>
		<path fill="#FFFFFF" d="M216.014,77.232c-0.05-0.307-0.087-0.559-0.113-0.756c-0.024-0.197-0.039-0.398-0.039-0.602
			c-0.271,0.445-0.63,0.813-1.067,1.1c-0.439,0.287-0.93,0.432-1.465,0.432c-0.75,0-1.33-0.23-1.736-0.688
			c-0.408-0.457-0.613-1.076-0.613-1.855c0-0.826,0.297-1.488,0.89-1.979c0.595-0.49,1.395-0.736,2.409-0.736h1.583v-1.094
			c0-0.631-0.163-1.123-0.487-1.48c-0.322-0.357-0.775-0.535-1.357-0.535c-0.545,0-0.988,0.17-1.337,0.51s-0.526,0.758-0.526,1.252
			l-0.938-0.008l-0.018-0.051c-0.026-0.67,0.231-1.264,0.776-1.789c0.546-0.523,1.241-0.785,2.092-0.785
			c0.842,0,1.517,0.25,2.03,0.752c0.518,0.502,0.773,1.219,0.773,2.152v4.367c0,0.318,0.014,0.625,0.041,0.922
			c0.029,0.295,0.08,0.588,0.152,0.871H216.014z M213.456,76.518c0.557,0,1.056-0.158,1.489-0.473
			c0.431-0.316,0.738-0.717,0.916-1.207v-1.924h-1.609c-0.687,0-1.237,0.191-1.65,0.572c-0.409,0.381-0.614,0.852-0.614,1.41
			c0,0.477,0.129,0.867,0.385,1.168C212.63,76.367,212.991,76.518,213.456,76.518z"/>
		<path fill="#FFFFFF" d="M223.531,75.111c0-0.406-0.136-0.758-0.407-1.053c-0.27-0.295-0.769-0.605-1.486-0.932
			c-0.925-0.371-1.6-0.752-2.028-1.137c-0.429-0.389-0.642-0.895-0.642-1.52c0-0.637,0.254-1.18,0.764-1.629
			c0.51-0.451,1.17-0.674,1.98-0.674c0.857,0,1.543,0.25,2.047,0.748c0.5,0.5,0.742,1.123,0.721,1.867l-0.018,0.049h-0.947
			c0-0.482-0.165-0.9-0.488-1.258c-0.322-0.357-0.764-0.535-1.314-0.535c-0.565,0-0.996,0.141-1.292,0.42
			c-0.299,0.279-0.445,0.607-0.445,0.979c0,0.395,0.118,0.711,0.353,0.951c0.233,0.238,0.738,0.537,1.51,0.9
			c0.906,0.357,1.583,0.744,2.03,1.164c0.446,0.42,0.671,0.949,0.671,1.59c0,0.711-0.258,1.279-0.775,1.713
			c-0.519,0.434-1.203,0.65-2.051,0.65c-0.933,0-1.667-0.258-2.195-0.775s-0.779-1.131-0.751-1.842l0.017-0.049h0.943
			c0.03,0.639,0.24,1.104,0.627,1.393c0.383,0.289,0.837,0.434,1.359,0.434c0.563,0,1.006-0.141,1.332-0.422
			S223.531,75.52,223.531,75.111z"/>
	</g>
</g>
</svg>
